hashtags;frequency;topn;label
svpol;10275;sd2018;0
svpol;10275;räddalss;0
svpol;10275;08pol;0
svpol;10275;tv4val;0
svpol;10275;lrf;0
val2018;780;4av5jobb;0
val2018;780;dinröst;1
val2018;780;valet2018;1
val2018;780;sdpol;0
val2018;780;svepol;1
pldebatt;757;duellen;1
pldebatt;757;cveket;0
pldebatt;757;slutdebatt;1
pldebatt;757;srdebatt;1
pldebatt;757;svtagenda;1
lundpol;683;vk;0
lundpol;683;polska;0
lundpol;683;nyheter;0
lundpol;683;val18;0
lundpol;683;ljusdal;0
svepol;641;cveket;0
svepol;641;valet2018;1
svepol;641;sdpol;0
svepol;641;dinröst;1
svepol;641;utbpol;0
gävle;612;kfgavle;1
gävle;612;ping;0
gävle;612;klimatval2018;0
gävle;612;företagsklimat;0
gävle;612;sätra;0
migpol;554;agenda;0
migpol;554;tv4val;0
migpol;554;valkonvent;0
migpol;554;funkpol;0
migpol;554;08pol;0
utbpol;479;xpol;0
utbpol;479;funkpol;0
utbpol;479;svepol;0
utbpol;479;ping;0
utbpol;479;021pol;0
almedalen;476;ekot;0
almedalen;476;tv4;0
almedalen;476;worldcup18;0
almedalen;476;ypol;0
almedalen;476;tv4debatt;0
polisen;456;terrorism;0
polisen;456;hofors;0
polisen;456;vanligt;0
polisen;456;ekonomi;0
polisen;456;radikalisering;0
teamulf;415;duellen;0
teamulf;415;dinröst;0
teamulf;415;srdebatt;0
teamulf;415;4av5jobb;0
teamulf;415;valet2018;0
dinröst;413;sdpol;0
dinröst;413;4av5jobb;0
dinröst;413;valet2018;1
dinröst;413;val2018;1
dinröst;413;duellen;0
bopol;364;funkpol;0
bopol;364;klimatval2018;0
bopol;364;021pol;0
bopol;364;08pol;0
bopol;364;ping;0
svt;360;jök;0
svt;360;tv4val;1
svt;360;januariblåsningen;0
svt;360;08pol;0
svt;360;play;1
pol;359;p4;0
pol;359;sj;0
pol;359;kiruna;0
pol;359;svd;0
pol;359;jakt;0
018pol;294;eupol;0
018pol;294;krimpol;0
018pol;294;tv4duellen;0
018pol;294;rödgrönröra;0
018pol;294;val2018;0
svtagenda;263;slutdebatt;1
svtagenda;263;agenda;1
svtagenda;263;duellen;1
svtagenda;263;migpol;0
svtagenda;263;cveket;0
humormothat;261;dagen;0
humormothat;261;gamla;0
humormothat;261;media;0
humormothat;261;oerhört;0
humormothat;261;kalla;0
08pol;257;tv4val;0
08pol;257;klimatval2018;0
08pol;257;räddalss;0
08pol;257;bopol;0
08pol;257;funkpol;0
zpol;231;klimat;0
zpol;231;ypol;0
zpol;231;våp18;0
zpol;231;klimatval2018;0
zpol;231;skogsbrand;0
klimat;215;zpol;0
klimat;215;ypol;0
klimat;215;företagsklimat;0
klimat;215;skogsbrand;0
klimat;215;våp18;0
sd2018;205;xpol;0
sd2018;205;räddalss;0
sd2018;205;tv4val;0
sd2018;205;agenda;0
sd2018;205;ping;0
skolan;195;kommun;0
skolan;195;miljö;0
skolan;195;e4;0
skolan;195;mm;0
skolan;195;stockholm;0
riksdagen;192;noterar;0
riksdagen;192;björn;0
riksdagen;192;väljarna;0
riksdagen;192;tillsammans;0
riksdagen;192;frågorna;0
tv4val;177;08pol;0
tv4val;177;räddalss;0
tv4val;177;funkpol;0
tv4val;177;klimatval2018;0
tv4val;177;bopol;0
funkpol;176;bopol;0
funkpol;176;räddalss;1
funkpol;176;08pol;0
funkpol;176;tv4val;0
funkpol;176;xpol;0
xpol;164;ping;0
xpol;164;räddalss;0
xpol;164;funkpol;0
xpol;164;sd2018;0
xpol;164;utbpol;0
agenda;155;migpol;0
agenda;155;slutdebatt;1
agenda;155;svtagenda;1
agenda;155;tv4val;1
agenda;155;duellen;1
rikspol;153;dn;0
rikspol;153;flygskatt;0
rikspol;153;twittboll;0
rikspol;153;v2018;0
rikspol;153;näringsliv;0
v2018;151;rikspol;0
v2018;151;pol;0
v2018;151;svd;0
v2018;151;sj;0
v2018;151;p4;0
föpol;144;skola;0
föpol;144;ljusdal;0
föpol;144;livetinorr;0
föpol;144;hudiksvall;0
föpol;144;almedalen18;0
aktuellt;139;sollefteå;0
aktuellt;139;almedalen2018;0
aktuellt;139;bilförlossning;0
aktuellt;139;aftonbladet;1
aktuellt;139;val18;0
sverigemötet;137;valkonvent;0
sverigemötet;137;migpol;0
sverigemötet;137;utfrågningen;0
sverigemötet;137;duellen;0
sverigemötet;137;agenda;0
skola;125;bollnäs;0
skola;125;livetinorr;0
skola;125;föpol;0
skola;125;söderhamn;0
skola;125;hudiksvall;0
melfest;110;höga;0
melfest;110;bakom;0
melfest;110;faktiskt;0
melfest;110;å;0
melfest;110;minister;0
åsiktsvänstern;108;vänner;0
åsiktsvänstern;108;eftersom;0
åsiktsvänstern;108;varken;0
åsiktsvänstern;108;såklart;0
åsiktsvänstern;108;kvar;0
säkpol;94;svfm;1
säkpol;94;twittboll;0
säkpol;94;skog;0
säkpol;94;facket;0
säkpol;94;rikspol;0
polisutbildningen;93;sista;0
polisutbildningen;93;nog;0
polisutbildningen;93;själva;0
polisutbildningen;93;stor;0
polisutbildningen;93;först;0
sr;91;08pol;0
sr;91;skogsbruk;0
sr;91;klimatval2018;0
sr;91;skogsbrand;0
sr;91;lrf;0
duellen;89;slutdebatt;1
duellen;89;valet2018;0
duellen;89;agenda;1
duellen;89;dinröst;0
duellen;89;pldebatt;1
v2019;87;vikten;0
v2019;87;behovet;0
v2019;87;försvaret;0
v2019;87;klara;0
v2019;87;absolut;0
4av5jobb;86;dinröst;0
4av5jobb;86;val2018;0
4av5jobb;86;sdpol;0
4av5jobb;86;valet2018;0
4av5jobb;86;svepol;0
krimpol;84;eupol;0
krimpol;84;018pol;0
krimpol;84;rödgrönröra;0
krimpol;84;tv4duellen;0
krimpol;84;swgreen;0
twittboll;84;skog;0
twittboll;84;dn;0
twittboll;84;facket;0
twittboll;84;näringsliv;0
twittboll;84;mju;0
jobb;83;tillväxt;0
jobb;83;tjänst;1
jobb;83;skapar;0
jobb;83;bättre;0
jobb;83;villkor;0
moderaterna;82;kl;0
moderaterna;82;almedalen2018;0
moderaterna;82;kvällens;0
moderaterna;82;efterhand;0
moderaterna;82;dikesförlossning;0
klimatval2018;79;bopol;0
klimatval2018;79;08pol;0
klimatval2018;79;tv4val;0
klimatval2018;79;företagsklimat;0
klimatval2018;79;funkpol;0
val18;77;aftonbladet;0
val18;77;nyheter;0
val18;77;dn;0
val18;77;flygskatt;0
val18;77;budgetdebatt;0
stoppavinstjakten;75;umeå;0
stoppavinstjakten;75;visby;0
stoppavinstjakten;75;sv;0
stoppavinstjakten;75;sundsvall;0
stoppavinstjakten;75;mm;0
vänsterpartiet;75;röster;0
vänsterpartiet;75;fel;0
vänsterpartiet;75;vänner;0
vänsterpartiet;75;förklara;0
vänsterpartiet;75;sitter;0
021pol;74;bopol;0
021pol;74;funkpol;0
021pol;74;klimatval2018;0
021pol;74;utbpol;0
021pol;74;ping;0
hudiksvall;72;ljusdal;1
hudiksvall;72;almedalen18;0
hudiksvall;72;aftonbladet;0
hudiksvall;72;livetinorr;1
hudiksvall;72;bytregering;0
valet2018;72;sdpol;0
valet2018;72;dinröst;1
valet2018;72;4av5jobb;0
valet2018;72;val2018;1
valet2018;72;duellen;0
alliansen;72;januariöverenskommelsen;0
alliansen;72;stödparti;1
alliansen;72;debatterar;0
alliansen;72;valstuga;0
alliansen;72;centerns;1
jök;70;januariblåsningen;1
jök;70;08pol;0
jök;70;bopol;0
jök;70;tv4val;0
jök;70;svt;0
twittervänstern;70;anser;0
twittervänstern;70;senast;0
twittervänstern;70;gick;0
twittervänstern;70;statsmedia;0
twittervänstern;70;medan;0
terrorism;69;vapen;1
terrorism;69;verkligheten;0
terrorism;69;radikalisering;1
terrorism;69;vanligt;0
terrorism;69;roll;0
sd;68;kd;0
sd;68;inflytande;0
sd;68;sviker;0
sd;68;stödja;0
sd;68;l.;0
företagsklimat;68;lrf;0
företagsklimat;68;klimat;0
företagsklimat;68;klimatval2018;0
företagsklimat;68;zpol;0
företagsklimat;68;bopol;0
januariblåsningen;65;jök;1
januariblåsningen;65;svt;0
januariblåsningen;65;08pol;0
januariblåsningen;65;sr;0
januariblåsningen;65;bopol;0
eupol;65;krimpol;0
eupol;65;018pol;0
eupol;65;val2018;0
eupol;65;rödgrönröra;0
eupol;65;swgreen;0
ljusdal;65;hudiksvall;1
ljusdal;65;aftonbladet;0
ljusdal;65;almedalen18;0
ljusdal;65;facket;0
ljusdal;65;dn;0
almedalen2018;65;sollefteå;0
almedalen2018;65;aktuellt;0
almedalen2018;65;bilförlossning;0
almedalen2018;65;radio;0
almedalen2018;65;moderaterna;0
norrpol;65;kloka;0
norrpol;65;berättar;0
norrpol;65;bekämpa;0
norrpol;65;meeting;0
norrpol;65;fin;0
sgoteborg;64;opinionsmätningar;0
sgoteborg;64;nyamoderaterna;0
sgoteborg;64;svikare;0
sgoteborg;64;företagarlinjen;0
sgoteborg;64;1517.30;0
sdpol;62;valet2018;0
sdpol;62;dinröst;0
sdpol;62;4av5jobb;0
sdpol;62;val2018;0
sdpol;62;svepol;0
linköping;61;väljarna;0
linköping;61;öppen;0
linköping;61;fridolin;0
linköping;61;samlade;0
linköping;61;björn;0
skog;56;twittboll;0
skog;56;näringsliv;0
skog;56;facket;0
skog;56;marknad;0
skog;56;mju;0
climate;55;people;0
climate;55;today;0
climate;55;gender;0
climate;55;kring;0
climate;55;privata;0
svfm;55;säkpol;1
svfm;55;skog;0
svfm;55;twittboll;0
svfm;55;rikspol;0
svfm;55;mju;0
centerpartiet;55;verkligheten;0
centerpartiet;55;enligt;0
centerpartiet;55;hör;0
centerpartiet;55;facebook;0
centerpartiet;55;roll;0
facket;54;twittboll;0
facket;54;skog;0
facket;54;dn;0
facket;54;ljusdal;0
facket;54;svtnyheter;0
socialdemokraterna;54;kom;0
socialdemokraterna;54;talesperson;0
socialdemokraterna;54;först;0
socialdemokraterna;54;sitter;0
socialdemokraterna;54;centerpartiets;0
fofrk;53;klokt;0
fofrk;53;fin;0
fofrk;53;ord;0
fofrk;53;migrationspolitik;0
fofrk;53;lyssnar;0
twittpuck;52;sandviken;0
twittpuck;52;sj;0
twittpuck;52;muf;0
twittpuck;52;norran;0
twittpuck;52;näringsliv;0
utfrågningen;52;sverigemötet;0
utfrågningen;52;migpol;0
utfrågningen;52;valkonvent;0
utfrågningen;52;almedalen;0
utfrågningen;52;svt;0
skattechock;51;sj;0
skattechock;51;kommunism;0
skattechock;51;svd;0
skattechock;51;1maj;0
skattechock;51;styr;0
ypol;51;klimat;0
ypol;51;zpol;1
ypol;51;skogsbrand;0
ypol;51;bollnäs;1
ypol;51;lrf;0